name,inicio,fim,ch
Paulo Victor Lobato Sarmento,27/06/2019,28/06/2019,8
Rogério Rocha da Costa Filho,27/06/2019,28/06/2019,8
Lívia Emanuelle Carrera Soares da Silva,27/06/2019,28/06/2019,8
Jairo Nascimento de Sousa Filho,27/06/2019,28/06/2019,8
Marco Aurélio Lima do Nascimento Junior,27/06/2019,28/06/2019,8
Allan da Silva Alcantara,27/06/2019,28/06/2019,8
Josiane de Oliveira Coelho,27/06/2019,28/06/2019,8
Alberto da Cruz Lima Sobrinho,27/06/2019,28/06/2019,8
André Avelino da Silva Neto,27/06/2019,28/06/2019,8
Helder Mateus dos Reis Matos,27/06/2019,28/06/2019,8
Juliane Costa Amaral,27/06/2019,28/06/2019,8
João de Deus Ferreira Filho,27/06/2019,28/06/2019,8
Wagner Felidré Negrão da Silva,27/06/2019,28/06/2019,8
Victor Saldanha,27/06/2019,28/06/2019,8
Fabio Pacheco de Souza,27/06/2019,28/06/2019,8
Caio Pinheiro de Carvalho,27/06/2019,28/06/2019,8
Arnold Thiago Luz Campos,27/06/2019,28/06/2019,8
Fagner Leal Pantoja,27/06/2019,28/06/2019,8
Filipe Damasceno Coelho,27/06/2019,28/06/2019,8
