name,inicio,fim,ch
Ailton de Jesus Silva,08/04/2019,11/04/2019,8
Brendo Vieira de Freitas,08/04/2019,11/04/2019,8
Daniela Karine Maravalho Avelar,08/04/2019,11/04/2019,8
Erlon Fonseca Pinheiro,08/04/2019,11/04/2019,8
Fabio Pacheco de Souza,08/04/2019,11/04/2019,8
Filipe Eduardo Junqueira Sales,08/04/2019,11/04/2019,8
Gabriel Beltrão de Abreu,08/04/2019,11/04/2019,8
Gabriel Cruz Soares Gomes,08/04/2019,11/04/2019,8
Gustavo Corrêa Rodrigues,08/04/2019,11/04/2019,8
Hugo Nicolau Magalhães de Souza Conte,08/04/2019,11/04/2019,8
Ingrid Moreira Miranda da Silva,08/04/2019,11/04/2019,8
Isaac Newton Barros Gomes,08/04/2019,11/04/2019,8
Jônatas Tiago Albuquerque de Moraes,08/04/2019,11/04/2019,8
José de Senna Pereira Neto,08/04/2019,11/04/2019,8
José Lucas dos Santos Cantão,08/04/2019,11/04/2019,8
Lucas Mesquita Rodrigues Ferreira,08/04/2019,11/04/2019,8
Manoel José Santos Martins Neto,08/04/2019,11/04/2019,8
Matheus Antônio Santos de Castro,08/04/2019,11/04/2019,8
Pedro Victor Frota de Almeida Jacinto,08/04/2019,11/04/2019,8
Rodrigo Lima Correa,08/04/2019,11/04/2019,8
Warllington José Fernandes Lima,08/04/2019,11/04/2019,8
Yuri Melo e Silva do Espírito Santo,08/04/2019,11/04/2019,8
