name,course,inicio,fim,turno,ch
Lucas Gabriel de Souza,Linux Fundamental,28/01/2019,31/01/2019,manhã,8
Lucas Gabriel de Souza,Python Fundamental,08/04/2019,11/04/2019,manhã,8
Wagner Felidré Negrão da Silva,Python para Manipulação de Dados,27/06/2019,28/06/2019,manhã,8
