name,inicio,fim,ch
Alan David Bitencourt Martins,30/01/2020,31/01/2020,6
Alberto da Cruz Lima Sobrinho,30/01/2020,31/01/2020,6
Bruno José Souza de Almeida,30/01/2020,31/01/2020,6
Brynner Barbosa de Brito,30/01/2020,31/01/2020,6
Edson de Jesus Rodrigues Gonçalves,30/01/2020,31/01/2020,6
Fabio de Souza Miranda,30/01/2020,31/01/2020,6
Fabricio de Souza Miranda,30/01/2020,31/01/2020,6
Flávia Monteiro Farias,30/01/2020,31/01/2020,6
Gabriel de Moraes Quinto,30/01/2020,31/01/2020,6
Givago da Silva Souza,30/01/2020,31/01/2020,6
Jamilly Valéria Silva de Oliveira,30/01/2020,31/01/2020,6
José Maria Junior Lopes Perdigão,30/01/2020,31/01/2020,6
Kelly do Socorro Silva da Costa,30/01/2020,31/01/2020,6
Paula Rosene dos Santos,30/01/2020,31/01/2020,6
Ronaldd Patrik Silva Pinho,30/01/2020,31/01/2020,6
Teoian Giovane Costa Quaresma,30/01/2020,31/01/2020,6
Walfredo Avila dos Santos Filho,30/01/2020,31/01/2020,6
